t,x
0.0,0.004247025743784252
0.01,0.07118265974123411
0.02,0.13024680970955532
0.03,0.195624647311545
0.04,0.2584387022422132
0.05,0.3116969920514759
0.06,0.3719258047908522
0.07,0.4260678975778765
0.08,0.48763100684654814
0.09,0.5369360189460061
0.1,0.5877936725472527
0.11,0.6444437816840347
0.12,0.6848148169771523
0.13,0.7362592616394181
0.14,0.774347811076562
0.15,0.8186021162549991
0.16,0.8443573253400813
0.17,0.8767904680122576
0.18,0.9137093525972607
0.19,0.9384430276079048
0.2,0.9605353257560068
0.21,0.978364436926393
0.22,0.9915071146058199
0.23,1.0006720500177595
0.24,1.0066232162728626
0.25,1.0044315002342221
0.26,1.0051905058209811
0.27,0.9926098388161821
0.28,0.9853423235276074
0.29,0.9746486600064768
0.3,0.9610405373188502
0.31,0.9328817823674473
0.32,0.9088167414501949
0.33,0.8767544803848171
0.34,0.8471095291815559
0.35,0.8128836209787947
0.36,0.7735974876203777
0.37,0.7349443681751332
0.38,0.6868685168946665
0.39,0.6387418476523126
0.4,0.5905262079919577
0.41,0.5432459296911099
0.42,0.4864817917310623
0.43,0.43469215879501827
0.44,0.37239807997856184
0.45,0.31820511839930177
0.46,0.25618753677519834
0.47,0.19709896025000986
0.48,0.12722081207696295
0.49,0.06578448335667683
0.5,0.003048234980905519
0.51,-0.057328643683170054
0.52,-0.12122315855221981
0.53,-0.17818563354758285
0.54,-0.2458904422455295
0.55,-0.30135962349959583
0.56,-0.3585177601602633
0.57,-0.42552256821060463
0.58,-0.48051609120788347
0.59,-0.5327028488446339
0.6,-0.5802436691356108
0.61,-0.6313008369288048
0.62,-0.6826931705643764
0.63,-0.7209702322239449
0.64,-0.7670736584788832
0.65,-0.8006858773848362
0.66,-0.8376003692329103
0.67,-0.8755494245041934
0.68,-0.8949513475499898
0.69,-0.9269529598197177
0.7,-0.94239452566509
0.71,-0.9595132802299392
0.72,-0.9746657051546148
0.73,-0.984000791121536
0.74,-0.9885289421097208
0.75,-0.9949932374133891
0.76,-0.997542777691526
0.77,-0.9872289236150344
0.78,-0.9769782175107283
0.79,-0.9659013256996004
0.8,-0.9496643159900652
0.81,-0.9230892775339782
0.82,-0.9009967227943521
0.83,-0.8709525004982338
0.84,-0.8431207590383775
0.85,-0.8031100535299142
0.86,-0.769633739933107
0.87,-0.7202872792709611
0.88,-0.6763960845215664
0.89,-0.6317593987000054
0.9,-0.5851536967541529
0.91,-0.5347085704616801
0.92,-0.4810788410718199
0.93,-0.4245012381561223
0.94,-0.3607413522270658
0.95,-0.3028058862577938
0.96,-0.2431447523114108
0.97,-0.1781671380865834
0.98,-0.12365883399684459
0.99,-0.05891700545767584
1.0,0.0008376201674256205
1.01,0.06302037487890769
1.02,0.12682368549138615
1.03,0.1940239461685201
1.04,0.25823672073305304
1.05,0.31084367324781137
1.06,0.36962255083457235
1.07,0.4264837925191359
1.08,0.4877810159301888
1.09,0.539915589222361
1.1,0.5880345250135546
1.11,0.6468697768736805
1.12,0.6916632832906717
1.13,0.729755506969016
1.14,0.7790360338442462
1.15,0.8113669170336546
1.16,0.8525833687331534
1.17,0.8775205825161838
1.18,0.912883689799591
1.19,0.9387483390233546
1.2,0.9543272869735666
1.21,0.9764202136029855
1.22,0.9834949853188424
1.23,0.9959686648008191
1.24,1.0038624849299373
1.25,1.002887723126154
1.26,1.0036173225710214
1.27,0.9986756544342804
1.28,0.9910734503884154
1.29,0.9740423638925862
1.3,0.9553517733694701
1.31,0.9302498262912235
1.32,0.9067235343297192
1.33,0.882427078363062
1.34,0.8518252984087695
1.35,0.8148423830701839
1.36,0.7707069927317588
1.37,0.7381994569123711
1.38,0.6897715522471953
1.39,0.6441207441689907
1.4,0.5910960927565568
1.41,0.5437931292045284
1.42,0.4875942407295369
1.43,0.427285225384299
1.44,0.368797017315292
1.45,0.3184488030360979
1.46,0.2572696145173602
1.47,0.18835326974284247
1.48,0.12726543800430473
1.49,0.06380311213977798
1.5,0.007629219085910411
1.51,-0.05401208309638064
1.52,-0.1167278876306649
1.53,-0.18590339663249997
1.54,-0.24117726967900652
1.55,-0.3006162659058839
1.56,-0.3600923316205046
1.57,-0.4171851751285954
1.58,-0.4721685341198932
1.59,-0.5313892342361876
1.6,-0.5785773367947263
1.61,-0.6337097300129267
1.62,-0.6808685947366081
1.63,-0.7278946908971541
1.64,-0.7669524488337924
1.65,-0.8037668286139086
1.66,-0.8365163217885623
1.67,-0.8719826930961291
1.68,-0.90434668532104
1.69,-0.9279866768439761
1.7,-0.9466068369238606
1.71,-0.9591060417338167
1.72,-0.9806157052513836
1.73,-0.9902017079939253
1.74,-0.993612213046594
1.75,-0.9976977817961813
1.76,-0.9908082486579258
1.77,-0.9822812261986035
1.78,-0.9796239900606923
1.79,-0.959498984958544
1.8,-0.9453510586863253
1.81,-0.9254435606834883
1.82,-0.8960998631249933
1.83,-0.8685625866996094
1.84,-0.8373103994157891
1.85,-0.8046461946698843
1.86,-0.7659181543801765
1.87,-0.7289393093067673
1.88,-0.6818116725629152
1.89,-0.6324786588997239
1.9,-0.586211845369596
1.91,-0.5298390581124394
1.92,-0.4741285087625923
1.93,-0.4195006304652227
1.94,-0.3658978063647611
1.95,-0.2990364277964526
1.96,-0.24364408431069923
1.97,-0.18221526138298758
1.98,-0.12276056801394117
1.99,-0.06266001664505415
2.0,0.0046554569582512514
2.01,0.07001815546355522
2.02,0.12735101676283686
2.03,0.1963827877391507
2.04,0.25794103735908497
2.05,0.3167151725527278
2.06,0.37769878305370186
2.07,0.4274133031834482
2.08,0.4847206792728665
2.09,0.5392888246418941
2.1,0.5966726802617879
2.11,0.6413878500677084
2.12,0.6876488197285342
2.13,0.7368005700646899
2.14,0.7774730355406496
2.15,0.80979483359155
2.16,0.851172567398944
2.17,0.8774692540547244
2.18,0.9080425771614722
2.19,0.9305232257892362
2.2,0.9552909431617096
2.21,0.9759031889140597
2.22,0.9864249144897247
2.23,0.9976476934940327
2.24,1.003665613685388
2.25,1.0069626427431682
2.26,1.0061665425908979
2.27,0.9988785674458277
2.28,0.9840897735673372
2.29,0.9713229242773831
2.3,0.9566994299691266
2.31,0.9384596275830178
2.32,0.9137837834637899
2.33,0.8785417532716615
2.34,0.8454098408209613
2.35,0.8107116443268501
2.36,0.7755119673303236
2.37,0.7328339740720226
2.38,0.6901465708285388
2.39,0.6424487645597475
2.4,0.5879907202805743
2.41,0.5362187092073045
2.42,0.48878610840725056
2.43,0.4281264255395854
2.44,0.3770831724648988
2.45,0.3133575413476107
2.46,0.25505904148834546
2.47,0.1967251888427122
2.48,0.13237253368220964
2.49,0.07226962946602238
2.5,0.00174786685992607
2.51,-0.058043585759665554
2.52,-0.1215360299233642
2.53,-0.18449876509951493
2.54,-0.2454032460133368
2.55,-0.30486551768970677
2.56,-0.35833152219181097
2.57,-0.42366645251497875
2.58,-0.4764048049803923
2.59,-0.5332973294936523
2.6,-0.5783313110347894
2.61,-0.6289967105393346
2.62,-0.6781528175324663
2.63,-0.7246933384490234
2.64,-0.7697314121078063
2.65,-0.8065536094662445
2.66,-0.839245801313212
2.67,-0.86983237213129
2.68,-0.9001048294301118
2.69,-0.9259234483938915
2.7,-0.9456899568688028
2.71,-0.9599548963844702
2.72,-0.9723071488217253
2.73,-0.982254774453882
2.74,-0.9922299972091176
2.75,-0.9913949712534629
2.76,-0.9953850829684007
2.77,-0.986056288879785
2.78,-0.9725705496508531
2.79,-0.9650222042583693
2.8,-0.9504021447906503
2.81,-0.921579860753443
2.82,-0.9034056235735435
2.83,-0.8696420399782818
2.84,-0.8424942987337853
2.85,-0.8078154112507888
2.86,-0.7626406329621696
2.87,-0.7261611060194846
2.88,-0.6753616375484157
2.89,-0.6365074972853169
2.9,-0.579504434445296
2.91,-0.5331661690741912
2.92,-0.4784533801796304
2.93,-0.4167881550099885
2.94,-0.3610116094102554
2.95,-0.3044353927234176
2.96,-0.23989641668070819
2.97,-0.17793613239725692
2.98,-0.11638229285852737
2.99,-0.05824327767294775
3.0,0.007808430368409698
