3.178
3.178
3.178
3.178
3.178
3.178
3.178
3.178
3.178
3.178
3.178
3.178
3.178
3.178
3.178
3.178
3.178
3.178
3.178
3.178
3.178
3.178
3.178
3.178
3.178
3.178
3.178
3.178
3.178
3.178
3.178
3.178
3.178
3.178
3.178
3.178
3.178
3.178
3.178
3.178
3.178
3.178
3.178
3.178
3.178
3.178
3.178
3.178
3.178
3.178
3.178
3.178
3.178
3.178
3.178
3.178
3.178
3.178
3.178
3.178
3.178
3.178
3.178
3.178
3.178
3.178
3.178
3.178
3.178
3.178
3.178
3.178
3.178
3.178
3.178
3.178
3.178
3.178
3.178
3.178
3.178
3.178
3.178
3.178
3.178
3.178
3.178
3.178
3.178
3.178
3.178
3.178
3.178
3.178
3.178
3.178
3.178
3.178
3.178
3.178
3.178
3.178
3.178
3.178
3.178
3.178
3.178
3.178
3.178
3.178
3.178
3.178
3.178
3.178
3.178
3.178
3.178
3.178
3.178
3.178
3.178
3.178
3.178
3.178
3.178
3.178
3.178
3.178
3.178
3.178
3.178
3.178
3.178
3.178
3.178
3.178
3.178
3.178
3.178
3.178
3.178
3.178
3.178
3.178
3.178
3.178
3.178
3.178
3.178
3.178
3.178
3.178
3.178
3.178
3.178
3.178
3.178
3.178
3.178
3.178
3.178
3.178
3.178
3.178
3.178
3.178
3.178
3.178
3.178
3.178
3.178
3.178
3.178
3.178
3.178
3.178
3.178
3.178
3.178
3.178
3.178
3.178
3.178
3.178
3.178
3.178
3.178
3.178
3.178
3.178
3.178
3.178
3.178
3.178
3.178
3.178
3.178
3.178
3.178
3.178
3.178
3.178
3.178
3.178
3.178
3.178
3.178
3.178
3.178
3.178
3.178
3.178
3.178
3.178
3.178
3.178
3.178
3.178
3.178
3.178
3.178
3.178
3.178
3.178
3.178
3.178
3.178
3.178
3.178
3.178
3.178
3.178
3.178
3.178
3.178
3.178
3.178
3.178
3.178
3.178
3.178
3.178
3.178
3.178
3.178
3.178
3.178
3.178
3.178
3.178
3.178
3.178
3.178
3.178
3.178
3.178
3.178
3.178
3.178
3.178
3.178
3.178
3.178
3.178
3.178
3.178
3.178
3.178
3.178
3.178
3.178
3.178
3.178
3.178
3.178
3.178
3.178
3.178
3.178
3.178
3.178
3.178
3.178
3.178
3.178
3.178
3.178
3.178
3.178
3.178
3.178
3.178
3.178
3.178
3.178
3.178
3.178
3.178
3.178
3.178
3.178
3.178
3.178
3.178
3.178
3.178
3.178
3.178
3.178
3.178
3.178
3.178
3.178
3.178
3.178
3.178
3.178
3.178
3.178
3.178
3.178
3.178
3.178
3.178
3.178
3.178
3.178
3.178
3.178
3.178
3.178
3.178
3.178
3.178
3.178
3.178
3.178
3.178
3.178
3.178
3.178
3.178
3.178
3.178
3.178
3.178
3.178
3.178
3.178
3.178
3.178
3.178
3.178
3.178
3.178
3.178
3.178
3.178
3.178
3.178
3.178
3.178
3.178
3.178
3.178
3.178
3.178
3.178
3.178
3.178
3.178
3.178
3.178
3.178
3.178
3.178
3.178
3.178
3.178
3.178
3.178
3.178
3.178
3.178
3.178
3.178
3.178
3.178
3.178
3.178
3.178
3.178
3.178
3.178
3.178
3.178
3.178
3.178
3.178
3.178
3.178
3.178
3.178
3.178
3.178
3.178
3.178
3.178
3.178
3.178
3.178
3.178
3.178
3.178
3.178
3.178
3.178
3.178
3.178
3.178
3.178
3.178
3.178
3.178
3.178
3.178
3.178
3.178
3.178
3.178
3.178
3.178
3.178
3.178
3.178
3.178
3.178
3.178
3.178
3.178
3.178
3.178
3.178
3.178
3.178
3.178
3.178
3.178
3.178
3.178
3.178
3.178
3.178
3.178
3.178
3.178
3.178
3.178
3.178
3.178
3.178
3.178
3.178
3.178
3.178
3.178
3.178
3.178
3.178
3.178
3.178
3.178
3.178
3.178
3.178
3.178
3.178
3.178
3.178
3.178
3.178
3.178
3.178
3.178
3.178
3.178
3.178
3.178
3.178
3.178
3.178
3.178
3.178
3.178
3.178
3.178
3.178
3.178
3.178
3.178
3.178
3.178
3.178
3.178
3.178
3.178
3.178
3.178
3.178
3.178
3.178
3.178
3.178
3.178
3.178
3.178
3.178
3.178
3.178
3.178
3.178
3.178
3.178
3.178
3.178
3.178
3.178
3.178
3.178
3.178
3.178
3.178
3.178
3.178
3.178
3.178
3.178
3.178
3.178
3.178
3.178
3.178
3.178
3.178
3.178
3.178
3.178
3.178
3.178
3.178
3.178
3.178
3.178
3.178
3.178
3.178
3.178
3.178
3.178
3.178
3.178
3.178
3.178
3.178
3.178
3.178
3.178
3.178
3.178
3.178
3.178
3.178
3.178
3.178
3.178
3.178
3.178
3.178
3.178
3.178
3.178
3.178
3.178
3.178
3.178
3.178
3.178
3.178
3.178
3.178
3.178
3.178
3.178
3.178
3.178
3.178
3.178
3.178
3.178
3.178
3.178
3.178
3.178
3.178
3.178
3.178
3.178
3.178
3.178
3.178
3.178
3.178
3.178
3.178
3.178
3.178
3.178
3.178
3.178
3.178
3.178
3.178
3.178
3.178
3.178
3.178
3.178
3.178
3.178
3.178
3.178
3.178
3.178
3.178
3.178
3.178
3.178
3.178
3.178
3.178
3.178
3.178
3.178
3.178
3.178
3.178
3.178
3.178
3.178
3.178
3.178
3.178
3.178
3.178
3.178
3.178
3.178
3.178
3.178
3.178
3.178
3.178
3.178
3.178
3.178
3.178
3.178
3.178
3.178
3.178
3.178
3.178
3.178
3.178
3.178
3.178
3.178
3.178
3.178
3.178
3.178
3.178
3.178
3.178
3.178
3.178
3.178
3.178
3.178
3.178
3.178
3.178
3.178
3.178
3.178
3.178
3.178
3.178
3.178
3.178
3.178
3.178
3.178
3.178
3.178
3.178
3.178
3.178
3.178
3.178
3.178
3.178
3.178
3.178
3.178
3.178
3.178
3.178
3.178
3.178
3.178
3.178
3.178
3.178
3.178
3.178
3.178
3.178
3.178
3.178
3.178
3.178
3.178
3.178
3.178
3.178
3.178
3.178
3.178
3.178
3.178
3.178
3.178
3.178
3.178
3.178
3.178
3.178
3.178
3.178
3.178
3.178
3.178
3.178
3.178
3.178
3.178
3.178
3.178
3.178
3.178
3.178
3.178
3.178
3.178
3.178
3.178
3.178
3.178
3.178
3.178
3.178
3.178
3.178
3.178
3.178
3.178
3.178
3.178
3.178
3.178
3.178
3.178
3.178
3.178
3.178
3.178
3.178
3.178
3.178
3.178
3.178
3.178
3.178
3.178
3.178
3.178
3.178
3.178
3.178
3.178
3.178
3.178
3.178
3.178
3.178
3.178
3.178
3.178
3.178
3.178
3.178
3.178
3.178
3.178
3.178
3.178
3.178
3.178
3.178
3.178
3.178
3.178
3.178
3.178
3.178
3.178
3.178
3.178
3.178
3.178
3.178
3.178
3.178
3.178
3.178
3.178
3.178
3.178
3.178
3.178
3.178
3.178
3.178
3.178
3.178
3.178
3.178
3.178
3.178
3.178
3.178
3.178
3.178
3.178
3.178
3.178
3.178
3.178
3.178
3.178
3.178
3.178
3.178
3.178
3.178
3.178
3.178
3.178
3.178
3.178
3.178
3.178
3.178
3.178
3.178
3.178
3.178
3.178
3.178
3.178
3.178
3.178
3.178
3.178
3.178
3.178
3.178
3.178
3.178
3.178
3.178
3.178
3.178
3.178
3.178
3.178
3.178
3.178
3.178
3.178
3.178
3.178
3.178
3.178
3.178
3.178
3.178
3.178
3.178
3.178
3.178
3.178
3.178
3.178
3.178
3.178
3.178
3.178
3.178
3.178
3.178
3.178
3.178
3.178
3.178
3.178
3.178
3.178
3.178
3.178
3.178
3.178
3.178
3.178
3.178
3.178
3.178
3.178
3.178
3.178
3.178
3.178
3.178
3.178
3.178
3.178
3.178
3.178
3.178
3.178
3.178
3.178
3.178
3.178
3.178
3.178
3.178
3.178
3.178
3.178
3.178
3.178
3.178
3.178
3.178
3.178
3.178
3.178
3.178
3.178
3.178
3.178
3.178
3.178
3.178
3.178
3.178
3.178
3.178
3.178
3.178
3.178
3.178
3.178
3.178
3.178
3.178
3.178
3.178
3.178
3.178
3.178
3.178
3.178
3.178
3.178
3.178
3.178
3.178
3.178
3.178
3.178
3.178
3.178
3.178
3.178
3.178
3.178
3.178
3.178
3.178
3.178
3.178
3.178
3.178
3.178
3.178
3.178
3.178
3.178
3.178
3.178
3.178
3.178
3.178
3.178
3.178
3.178
3.178
3.178
3.178
3.178
3.178
3.178
3.178
3.178
3.178
3.178
3.178
3.178
3.178
3.178
3.178
3.178
3.178
3.178
3.178
3.178
3.178
3.178
3.178
3.178
3.178
3.178
3.178
3.178
3.178
3.178
3.178
3.178
3.178
3.178
3.178
3.178
3.178
3.178
3.178
3.178
3.178
3.178
3.178
3.178
3.178
3.178
3.178
3.178
3.178
3.178
3.178
3.178
3.178
3.178
3.178
3.178
3.178
3.178
3.178
3.178
3.178
3.178
3.178
3.178
3.178
3.178
3.178
3.178
3.178
3.178
3.178
3.178
3.178
3.178
3.178
3.178
3.178
3.178
3.178
3.178
3.178
3.178
3.178
3.178
3.178
3.178
3.178
3.178
3.178
3.178
3.178
3.178
3.178
3.178
3.178
3.178
3.178
3.178
3.178
3.178
3.178
3.178
3.178
3.178
3.178
3.178
3.178
3.178
3.178
3.178
3.178
3.178
3.178
3.178
3.178
3.178
3.178
3.178
3.178
3.178
3.178
3.178
3.178
3.178
3.178
3.178
3.178
3.178
3.178
3.178
3.178
3.178
3.178
3.178
3.178
3.178
3.178
3.178
3.178
3.178
3.178
3.178
3.178
3.178
3.178
3.178
3.178
3.178
3.178
3.178
3.178
3.178
3.178
3.178
3.178
3.178
3.178
3.178
3.178
3.178
3.178
3.178
3.178
3.178
3.178
3.178
3.178
3.178
3.178
3.178
3.178
3.178
3.178
3.178
3.178
3.178
3.178
3.178
3.178
3.178
3.178
3.178
3.178
3.178
3.178
3.178
3.178
3.178
3.178
3.178
3.178
3.178
3.178
3.178
3.178
3.178
3.178
3.178
3.178
3.178
3.178
3.178
3.178
3.178
3.178
3.178
3.178
3.178
3.178
3.178
3.178
3.178
3.178
3.178
3.178
3.178
3.178
3.178
3.178
3.178
3.178
3.178
3.178
3.178
3.178
3.178
3.178
3.178
3.178
3.178
3.178
3.178
3.178
3.178
3.178
3.178
3.178
3.178
3.178
3.178
3.178
3.178
3.178
3.178
3.178
3.178
3.178
3.178
3.178
3.178
3.178
3.178
3.178
3.178
3.178
3.178
3.178
3.178
3.178
3.178
3.178
3.178
3.178
3.178
3.178
3.178
3.178
3.178
3.178
3.178
3.178
3.178
3.178
3.178
3.178
3.178
3.178
3.178
3.178
3.178
3.178
3.178
3.178
3.178
3.178
3.178
3.178
3.178
3.178
3.178
3.178
3.178
3.178
3.178
3.178
3.178
3.178
3.178
3.178
3.178
3.178
3.178
3.178
3.178
3.178
3.178
3.178
3.178
3.178
3.178
3.178
3.178
3.178
3.178
3.178
3.178
3.178
3.178
3.178
3.178
3.178
3.178
3.178
3.178
3.178
3.178
3.178
3.178
3.178
3.178
3.178
3.178
3.178
3.178
3.178
3.178
3.178
3.178
3.178
3.178
3.178
3.178
3.178
3.178
3.178
3.178
3.178
3.178
3.178
3.178
3.178
3.178
3.178
3.178
3.178
3.178
3.178
3.178
3.178
3.178
3.178
3.178
3.178
3.178
3.178
3.178
3.178
3.178
3.178
3.178
3.178
3.178
3.178
3.178
3.178
3.178
3.178
3.178
3.178
3.178
3.178
3.178
3.178
3.178
3.178
3.178
3.178
3.178
3.178
3.178
3.178
3.178
3.178
3.178
3.178
3.178
3.178
3.178
3.178
3.178
3.178
3.178
3.178
3.178
3.178
3.178
3.178
3.178
3.178
3.178
3.178
3.178
3.178
3.178
3.178
3.178
3.178
3.178
3.178
3.178
3.178
3.178
3.178
3.178
3.178
3.178
3.178
3.178
3.178
3.178
3.178
3.178
3.178
3.178
3.178
3.178
3.178
3.178
3.178
3.178
3.178
3.178
3.178
3.178
3.178
3.178
3.178
3.178
3.178
3.178
3.178
3.178
3.178
3.178
3.178
3.178
3.178
3.178
3.178
3.178
3.178
3.178
3.178
3.178
3.178
3.178
3.178
3.178
3.178
3.178
3.178
3.178
3.178
3.178
3.178
3.178
3.178
3.178
3.178
3.178
3.178
3.178
3.178
3.178
3.178
3.178
3.178
3.178
3.178
3.178
3.178
3.178
3.178
3.178
3.178
3.178
3.178
3.178
3.178
3.178
3.178
3.178
3.178
3.178
3.178
3.178
3.178
3.178
3.178
3.178
3.178
3.178
3.178
3.178
3.178
3.178
3.178
3.178
3.178
3.178
3.178
3.178
3.178
3.178
3.178
3.178
3.178
3.178
3.178
3.178
3.178
3.178
3.178
3.178
3.178
3.178
3.178
3.178
3.178
3.178
3.178
3.178
3.178
3.178
3.178
3.178
3.178
3.178
3.178
3.178
3.178
3.178
3.178
3.178
3.178
3.178
3.178
3.178
3.178
3.178
3.178
3.178
3.178
3.178
3.178
3.178
3.178
3.178
3.178
3.178
3.178
3.178
3.178
3.178
3.178
3.178
3.178
3.178
3.178
3.178
3.178
3.178
3.178
3.178
3.178
3.178
3.178
3.178
3.178
3.178
3.178
3.178
3.178
3.178
3.178
3.178
3.178
3.178
3.178
3.178
3.178
3.178
3.178
3.178
3.178
3.178
3.178
3.178
3.178
3.178
3.178
3.178
3.178
3.178
3.178
3.178
3.178
3.178
3.178
3.178
3.178
3.178
3.178
3.178
3.178
3.178
3.178
3.178
3.178
3.178
3.178
3.178
3.178
3.178
3.178
3.178
3.178
3.178
3.178
3.178
3.178
3.178
3.178
3.178
3.178
3.178
3.178
3.178
3.178
3.178
3.178
3.178
3.178
3.178
3.178
3.178
3.178
3.178
3.178
3.178
3.178
3.178
3.178
3.178
3.178
3.178
3.178
3.178
3.178
3.178
3.178
3.178
3.178
3.178
3.178
3.178
3.178
3.178
3.178
3.178
3.178
3.178
3.178
3.178
3.178
3.178
3.178
3.178
3.178
3.178
3.178
3.178
3.178
3.178
3.178
3.178
3.178
3.178
3.178
3.178
3.178
3.178
3.178
3.178
3.178
3.178
3.178
3.178
3.178
3.178
3.178
3.178
3.178
3.178
3.178
3.178
3.178
3.178
3.178
3.178
3.178
3.178
3.178
3.178
3.178
3.178
3.178
3.178
3.178
3.178
3.178
3.178
3.178
3.178
3.178
3.178
3.178
3.178
3.178
3.178
3.178
3.178
3.178
3.178
3.178
3.178
3.178
3.178
3.178
3.178
3.178
3.178
3.178
3.178
3.178
3.178
3.178
3.178
3.178
3.178
3.178
3.178
3.178
3.178
3.178
3.178
3.178
3.178
3.178
3.178
3.178
3.178
3.178
3.178
3.178
3.178
3.178
3.178
3.178
3.178
3.178
3.178
3.178
3.178
3.178
3.178
3.178
3.178
3.178
3.178
3.178
3.178
3.178
3.178
3.178
3.178
3.178
3.178
3.178
3.178
3.178
3.178
3.178
3.178
3.178
3.178
3.178
3.178
3.178
3.178
3.178
3.178
3.178
3.178
3.178
3.178
3.178
3.178
3.178
3.178
3.178
3.178
3.178
3.178
3.178
3.178
3.178
3.178
3.178
3.178
3.178
3.178
3.178
3.178
3.178
3.178
3.178
3.178
3.178
3.178
3.178
3.178
3.178
3.178
3.178
3.178
3.178
3.178
3.178
3.178
3.178
3.178
3.178
3.178
3.178
3.178
3.178
3.178
3.178
3.178
3.178
3.178
3.178
3.178
3.178
3.178
3.178
3.178
3.178
3.178
3.178
3.178
3.178
3.178
3.178
3.178
3.178
3.178
3.178
3.178
3.178
3.178
3.178
3.178
3.178
3.178
3.178
3.178
3.178
3.178
3.178
3.178
3.178
3.178
3.178
3.178
3.178
3.178
3.178
3.178
3.178
3.178
3.178
3.178
3.178
3.178
3.178
3.178
3.178
3.178
3.178
3.178
3.178
3.178
3.178
3.178
3.178
3.178
3.178
3.178
3.178
3.178
3.178
3.178
3.178
3.178
3.178
3.178
3.178
3.178
3.178
3.178
3.178
3.178
3.178
3.178
3.178
3.178
3.178
3.178
3.178
3.178
3.178
3.178
3.178
3.178
3.178
3.178
3.178
3.178
3.178
3.178
3.178
3.178
3.178
3.178
3.178
3.178
3.178
3.178
3.178
3.178
3.178
3.178
3.178
3.178
3.178
3.178
3.178
3.178
3.178
3.178
3.178
3.178
3.178
3.178
3.178
3.178
3.178
3.178
3.178
3.178
3.178
3.178
3.178
3.178